<?xml version="1.0" encoding="UTF-8"?>
<!DOCTYPE svg PUBLIC "-//W3C//DTD SVG 1.1//EN" "http://www.w3.org/Graphics/SVG/1.1/DTD/svg11.dtd">
<!-- Creator: CorelDRAW X8 -->
<svg xmlns="http://www.w3.org/2000/svg" xml:space="preserve" width="9px" height="9px" version="1.1" shape-rendering="geometricPrecision" text-rendering="geometricPrecision" image-rendering="optimizeQuality" fill-rule="evenodd" clip-rule="evenodd"
viewBox="0 0 188 188"
 xmlns:xlink="http://www.w3.org/1999/xlink">
 <g id="Слой_x0020_1">
  <metadata id="CorelCorpID_0Corel-Layer"/>
  <path fill="#AFBAD1" fill-rule="nonzero" d="M72 22c0,-12 10,-22 22,-22 12,0 22,10 22,22l0 50 50 0c12,0 22,10 22,22 0,12 -10,22 -22,22l-50 0 0 50c0,12 -10,22 -22,22 -12,0 -22,-10 -22,-22l0 -50 -50 0c-12,0 -22,-10 -22,-22 0,-12 10,-22 22,-22l50 0 0 -50z"/>
 </g>
</svg>
