<?xml version="1.0" encoding="UTF-8"?>
<!DOCTYPE svg PUBLIC "-//W3C//DTD SVG 1.1//EN" "http://www.w3.org/Graphics/SVG/1.1/DTD/svg11.dtd">
<!-- Creator: CorelDRAW X8 -->
<svg xmlns="http://www.w3.org/2000/svg" xml:space="preserve" width="31px" height="35px" version="1.1" shape-rendering="geometricPrecision" text-rendering="geometricPrecision" image-rendering="optimizeQuality" fill-rule="evenodd" clip-rule="evenodd"
viewBox="0 0 2798 3118"
 xmlns:xlink="http://www.w3.org/1999/xlink">
 <g id="Слой_x0020_1">
  <metadata id="CorelCorpID_0Corel-Layer"/>
  <path fill="#AFBAD1" fill-rule="nonzero" d="M2519 1283c156,0 279,123 279,279l0 638c0,508 -410,918 -918,918 -426,0 -735,-243 -937,-603 -109,-202 -230,-382 -336,-540 -226,-338 -388,-579 -236,-731 79,-79 179,-79 288,-34 98,40 203,117 304,206l0 -852 -700 0 337 327 -103 103 -497 -496c166,-166 332,-332 498,-498l91 105 -327 326 709 0c29,-126 141,-212 271,-212 129,0 241,86 271,212l708 0 -326 -326 91 -105 497 498c-165,165 -331,331 -497,496l-102 -103 337 -327 -700 0 0 442c44,-28 94,-42 146,-42 110,0 205,64 250,163 52,-37 113,-57 177,-57 146,0 266,109 277,255 45,-28 95,-42 148,-42zm-1011 345l-119 0 -1 -1130c0,-78 -68,-148 -146,-148 -79,0 -147,70 -147,148l0 1234 -22 -23c-111,-117 -238,-238 -352,-316 -109,-75 -205,-109 -257,-56 -73,72 38,243 246,563 99,152 220,336 352,560 195,316 428,525 818,525 420,0 786,-366 786,-785l0 -638c0,-78 -69,-147 -147,-147 -78,0 -147,69 -147,147l0 66 -132 0 0 -279c0,-78 -69,-147 -146,-147 -79,0 -148,69 -148,147l0 172 -131 0 0 -279c0,-78 -70,-146 -148,-146 -77,0 -146,69 -146,146l0 386 -13 0z"/>
 </g>
</svg>
