<?xml version="1.0" encoding="UTF-8"?>
<!DOCTYPE svg PUBLIC "-//W3C//DTD SVG 1.1//EN" "http://www.w3.org/Graphics/SVG/1.1/DTD/svg11.dtd">
<!-- Creator: CorelDRAW X8 -->
<svg xmlns="http://www.w3.org/2000/svg" xml:space="preserve" width="80px" height="19px" version="1.1" shape-rendering="geometricPrecision" text-rendering="geometricPrecision" image-rendering="optimizeQuality" fill-rule="evenodd" clip-rule="evenodd"
viewBox="0 0 15703 3797"
 xmlns:xlink="http://www.w3.org/1999/xlink">
 <g id="Слой_x0020_1">
  <metadata id="CorelCorpID_0Corel-Layer"/>
  <g id="Webest_logo_RGB.cdr">
   <path fill="#3F70AB" fill-rule="nonzero" d="M1846 962c258,0 493,105 662,274 170,170 275,404 275,663 0,259 -105,493 -275,662 -169,170 -404,275 -662,275 -259,0 -494,-105 -663,-275 -170,-169 -275,-403 -275,-662 0,-259 105,-493 275,-663 169,-169 404,-274 663,-274zm323 613c-83,-82 -197,-134 -323,-134 -127,0 -241,52 -324,134 -83,83 -134,197 -134,324 0,126 51,241 134,323 83,83 197,134 324,134 126,0 240,-51 323,-134 83,-82 134,-197 134,-323 0,-127 -51,-241 -134,-324z"/>
   <path fill="#37AADE" fill-rule="nonzero" d="M0 1457c102,-427 344,-791 670,-1048 327,-258 738,-409 1176,-409 524,0 998,213 1342,556 344,344 556,818 556,1343 0,195 -30,389 -89,573 -58,184 -145,360 -258,520l-474 -333c78,-111 138,-233 179,-362 40,-128 61,-262 61,-398 0,-364 -147,-694 -386,-932 -238,-239 -568,-386 -931,-386 -307,0 -592,104 -817,282 -227,179 -395,432 -466,728l-563 -134zm7420 -106l-362 1287c-30,103 -69,178 -117,224 -68,62 -168,93 -302,93 -225,0 -361,-77 -407,-231l-209 -691c-10,-32 -18,-47 -24,-47 -6,0 -14,15 -24,47l-209 691c-46,154 -182,231 -407,231 -134,0 -234,-31 -302,-93 -48,-46 -87,-121 -117,-224l-362 -1287 556 0 240 913c8,32 18,48 30,48 8,0 17,-15 27,-45l233 -766c34,-112 145,-168 335,-168 189,0 301,56 335,168l233 766c10,30 19,45 27,45 12,0 22,-16 30,-48l239 -913 557 0zm1684 623c0,141 -32,238 -96,290 -37,30 -89,45 -155,45l-865 0c-4,51 5,95 27,130 22,35 59,57 111,67 26,4 77,6 152,6l769 0 0 425 -1002 0c-151,0 -259,-9 -323,-27 -104,-28 -183,-87 -238,-177 -55,-89 -82,-280 -82,-571 0,-205 3,-336 9,-392 16,-124 56,-218 121,-284 65,-66 170,-110 316,-132 93,-14 237,-21 430,-21 188,0 322,5 401,15 112,16 197,47 255,93 113,92 170,269 170,533zm-586 -120c0,-70 -60,-109 -180,-117 -30,-2 -58,-3 -83,-3 -122,0 -198,15 -229,45 -31,30 -44,83 -38,159l434 0c64,0 96,-28 96,-84zm2414 287c0,237 -35,415 -105,533 -103,175 -290,263 -559,263l-697 0c-112,0 -197,-31 -254,-93 -46,-50 -69,-115 -69,-194l0 -1807 586 0 0 508 425 0c271,0 460,86 565,258 72,117 108,295 108,532zm-598 -6c0,-108 -13,-190 -39,-248 -36,-82 -101,-123 -195,-123l-266 0 0 604c0,58 9,97 28,116 19,19 55,28 107,28l119 0c102,0 170,-36 204,-108 28,-57 42,-147 42,-269zm2408 -161c0,141 -32,238 -96,290 -38,30 -90,45 -155,45l-865 0c-4,51 5,95 27,130 22,35 59,57 111,67 26,4 76,6 152,6l769 0 0 425 -1002 0c-152,0 -259,-9 -323,-27 -104,-28 -183,-87 -238,-177 -55,-89 -82,-280 -82,-571 0,-205 3,-336 9,-392 16,-124 56,-218 121,-284 65,-66 170,-110 315,-132 94,-14 238,-21 431,-21 188,0 321,5 401,15 112,16 196,47 254,93 114,92 171,269 171,533zm-587 -120c0,-70 -59,-109 -179,-117 -30,-2 -58,-3 -84,-3 -121,0 -198,15 -229,45 -31,30 -43,83 -37,159l434 0c64,0 95,-28 95,-84zm2238 670c0,156 -44,268 -132,338 -61,50 -148,75 -260,75l-1134 0 0 -425 865 0c12,0 23,-3 34,-10 11,-7 17,-18 17,-32 0,-14 -8,-25 -24,-34 -16,-9 -77,-31 -183,-65l-341 -110c-165,-54 -274,-124 -326,-210 -40,-65 -60,-154 -60,-266 0,-116 25,-210 75,-284 68,-100 191,-150 368,-150l1059 0 0 407 -861 0c-38,0 -61,1 -69,3 -18,4 -27,13 -27,27 0,16 11,28 33,36 16,8 56,23 119,45l401 134c188,64 309,136 364,214 55,79 82,181 82,307zm1310 -766l-451 0 0 362c0,152 34,257 101,317 56,50 142,75 258,75l86 0 0 425 -341 0c-221,0 -385,-36 -490,-108 -134,-90 -201,-219 -201,-389l0 -682 -224 0 0 -407 224 0 0 -508 587 0 0 508 451 0 0 407zm-12628 1585c-173,148 -367,261 -574,337 -209,77 -431,117 -655,117 -83,0 -169,-6 -257,-18 -86,-11 -170,-29 -253,-52l154 -558c58,16 117,28 176,36 55,8 116,12 180,12 157,0 311,-28 455,-81 147,-54 282,-133 400,-233l374 440zm-2226 171c-91,-56 -176,-119 -255,-189 -80,-70 -154,-147 -221,-229l449 -366c47,58 98,111 153,159 56,50 115,94 178,132l-304 493z"/>
  </g>
 </g>
</svg>
