<?xml version="1.0" encoding="UTF-8"?>
<!DOCTYPE svg PUBLIC "-//W3C//DTD SVG 1.1//EN" "http://www.w3.org/Graphics/SVG/1.1/DTD/svg11.dtd">
<!-- Creator: CorelDRAW X8 -->
<svg xmlns="http://www.w3.org/2000/svg" xml:space="preserve" width="7px" height="12px" version="1.1" shape-rendering="geometricPrecision" text-rendering="geometricPrecision" image-rendering="optimizeQuality" fill-rule="evenodd" clip-rule="evenodd"
viewBox="0 0 123 212"
 xmlns:xlink="http://www.w3.org/1999/xlink">
 <g id="Слой_x0020_1">
  <metadata id="CorelCorpID_0Corel-Layer"/>
  <path fill="#AFBAD1" fill-rule="nonzero" d="M5 29c-7,-7 -7,-17 0,-24 7,-7 17,-7 24,0l89 89c7,7 7,17 0,24l-89 89c-7,7 -17,7 -24,0 -7,-7 -7,-17 0,-24l77 -77 -77 -77z"/>
 </g>
</svg>
