<?xml version="1.0" encoding="UTF-8"?>
<!DOCTYPE svg PUBLIC "-//W3C//DTD SVG 1.1//EN" "http://www.w3.org/Graphics/SVG/1.1/DTD/svg11.dtd">
<!-- Creator: CorelDRAW X8 -->
<svg xmlns="http://www.w3.org/2000/svg" xml:space="preserve" width="20px" height="14px" version="1.1" shape-rendering="geometricPrecision" text-rendering="geometricPrecision" image-rendering="optimizeQuality" fill-rule="evenodd" clip-rule="evenodd"
viewBox="0 0 992 698"
 xmlns:xlink="http://www.w3.org/1999/xlink">
 <g id="Слой_x0020_1">
  <metadata id="CorelCorpID_0Corel-Layer"/>
  <g id="_2014992451712">
   <polygon fill="#AFBAD1" fill-opacity="0.121569" points="394,199 629,356 662,339 "/>
   <g>
    <g>
     <path fill="#AFBAD1" fill-rule="nonzero" d="M982 151c0,0 -9,-69 -39,-99 -38,-39 -80,-40 -100,-42 -138,-10 -347,-10 -347,-10l0 0c0,0 -208,0 -347,10 -20,2 -62,3 -100,42 -29,30 -39,99 -39,99 0,0 -10,80 -10,160l0 75c0,81 10,161 10,161 0,0 10,68 39,98 38,40 88,39 110,43 79,7 337,10 337,10 0,0 209,-1 347,-11 20,-2 62,-2 100,-42 30,-30 39,-98 39,-98 0,0 10,-80 10,-161l0 -75c0,-80 -10,-160 -10,-160zm-588 327l0 0 0 -279 268 140 -268 139z"/>
    </g>
   </g>
  </g>
 </g>
</svg>
