<?xml version="1.0" encoding="UTF-8"?>
<!DOCTYPE svg PUBLIC "-//W3C//DTD SVG 1.1//EN" "http://www.w3.org/Graphics/SVG/1.1/DTD/svg11.dtd">
<!-- Creator: CorelDRAW X8 -->
<svg xmlns="http://www.w3.org/2000/svg" xml:space="preserve" width="15px" height="14px" version="1.1" shape-rendering="geometricPrecision" text-rendering="geometricPrecision" image-rendering="optimizeQuality" fill-rule="evenodd" clip-rule="evenodd"
viewBox="0 0 563 533"
 xmlns:xlink="http://www.w3.org/1999/xlink">
 <g id="Слой_x0020_1">
  <metadata id="CorelCorpID_0Corel-Layer"/>
  <path fill="#AFBAD1" fill-rule="nonzero" d="M449 366l114 115 -52 52 -109 -110c-43,38 -99,60 -160,60 -67,0 -127,-27 -171,-70 -44,-44 -71,-105 -71,-171 0,-67 27,-127 71,-171 44,-44 104,-71 171,-71 66,0 127,27 171,71 43,44 70,104 70,171 0,45 -12,88 -34,124zm-88 -243c-31,-31 -73,-49 -119,-49 -47,0 -89,18 -119,49 -31,30 -49,72 -49,119 0,46 18,88 49,119 30,30 72,49 119,49 46,0 88,-19 119,-49 30,-31 49,-73 49,-119 0,-47 -19,-89 -49,-119z"/>
 </g>
</svg>
